
Log Entry:
10/08/2018 20:22:26
Log in: https://localhost:44309/. Log Message:user about to get to the landing page; Generated by 
_______________________________________

Log Entry:
10/08/2018 20:22:30
Log in: https://localhost:44309/. Log Message:Got staff id; Generated by P7578
_______________________________________

Log Entry:
10/08/2018 20:22:30
Log in: https://localhost:44309/Receptionist. Log Message:user about to get to the receptionist controller; Generated by 
_______________________________________

Log Entry:
10/08/2018 20:23:03
Log in: https://localhost:44309/staff/dashboard. Log Message:user about to get to the staff controller; Generated by 
_______________________________________

Log Entry:
10/08/2018 20:23:03
Log in: https://localhost:44309/staff/dashboard. Log Message:check if user exist in the db---------FIDELITYBANK\P7578; Generated by 1returned
_______________________________________

Log Entry:
10/08/2018 20:23:08
Log in: https://localhost:44309/staff/GetDashboardPieChartItems. Log Message:user about to get to the staff controller; Generated by 
_______________________________________

Log Entry:
10/08/2018 20:23:09
Log in: https://localhost:44309/staff/GetDashboardPieChartItems. Log Message:check if user exist in the db---------FIDELITYBANK\P7578; Generated by 1returned
_______________________________________

Log Entry:
10/08/2018 20:23:16
Log in: https://localhost:44309/staff/GetDashboarBarChartItems. Log Message:user about to get to the staff controller; Generated by 
_______________________________________

Log Entry:
10/08/2018 20:23:17
Log in: https://localhost:44309/staff/GetDashboarBarChartItems. Log Message:check if user exist in the db---------FIDELITYBANK\P7578; Generated by 1returned
_______________________________________

Log Entry:
10/08/2018 20:38:00
Log in: https://localhost:44309/Staff/DashBoard. Log Message:user about to get to the staff controller; Generated by 
_______________________________________

Log Entry:
10/08/2018 20:38:00
Log in: https://localhost:44309/Staff/DashBoard. Log Message:check if user exist in the db---------FIDELITYBANK\P7578; Generated by 1returned
_______________________________________

Log Entry:
10/08/2018 20:38:10
Log in: https://localhost:44309/staff/GetDashboarBarChartItems. Log Message:user about to get to the staff controller; Generated by 
_______________________________________

Log Entry:
10/08/2018 20:38:11
Log in: https://localhost:44309/staff/GetDashboarBarChartItems. Log Message:check if user exist in the db---------FIDELITYBANK\P7578; Generated by 1returned
_______________________________________

Log Entry:
10/08/2018 20:38:12
Log in: https://localhost:44309/staff/GetDashboardPieChartItems. Log Message:user about to get to the staff controller; Generated by 
_______________________________________

Log Entry:
10/08/2018 20:38:12
Log in: https://localhost:44309/staff/GetDashboardPieChartItems. Log Message:check if user exist in the db---------FIDELITYBANK\P7578; Generated by 1returned
_______________________________________

Log Entry:
10/08/2018 20:39:11
Log in: https://localhost:44309/staff/createinvite. Log Message:user about to get to the staff controller; Generated by 
_______________________________________

Log Entry:
10/08/2018 20:39:12
Log in: https://localhost:44309/staff/createinvite. Log Message:check if user exist in the db---------FIDELITYBANK\P7578; Generated by 1returned
_______________________________________

Log Entry:
10/08/2018 20:55:40
Log in: https://localhost:44309/. Log Message:user about to get to the landing page; Generated by 
_______________________________________

Log Entry:
10/08/2018 20:57:58
Log in: https://localhost:44309/. Log Message:user about to get to the landing page; Generated by 
_______________________________________

Log Entry:
10/08/2018 20:58:08
Log in: https://localhost:44309/. Log Message:Got staff id; Generated by P7578
_______________________________________

Log Entry:
10/08/2018 20:58:09
Log in: https://localhost:44309/Receptionist. Log Message:user about to get to the receptionist controller; Generated by 
_______________________________________

Log Entry:
10/08/2018 20:58:45
Log in: https://localhost:44309/staff/dashboard. Log Message:user about to get to the staff controller; Generated by 
_______________________________________

Log Entry:
10/08/2018 20:58:46
Log in: https://localhost:44309/staff/dashboard. Log Message:check if user exist in the db---------FIDELITYBANK\P7578; Generated by 1returned
_______________________________________

Log Entry:
10/08/2018 20:58:52
Log in: https://localhost:44309/staff/GetDashboardPieChartItems. Log Message:user about to get to the staff controller; Generated by 
_______________________________________

Log Entry:
10/08/2018 20:58:54
Log in: https://localhost:44309/staff/GetDashboardPieChartItems. Log Message:check if user exist in the db---------FIDELITYBANK\P7578; Generated by 1returned
_______________________________________

Log Entry:
10/08/2018 20:58:54
Log in: https://localhost:44309/staff/GetDashboarBarChartItems. Log Message:user about to get to the staff controller; Generated by 
_______________________________________

Log Entry:
10/08/2018 20:58:55
Log in: https://localhost:44309/staff/GetDashboarBarChartItems. Log Message:check if user exist in the db---------FIDELITYBANK\P7578; Generated by 1returned
_______________________________________

Log Entry:
10/08/2018 20:59:31
Log in: https://localhost:44309/staff/createinvite. Log Message:user about to get to the staff controller; Generated by 
_______________________________________

Log Entry:
10/08/2018 20:59:31
Log in: https://localhost:44309/staff/createinvite. Log Message:check if user exist in the db---------FIDELITYBANK\P7578; Generated by 1returned
_______________________________________

Log Entry:
10/08/2018 20:59:55
Log in: https://localhost:44309/staff/createinvite. Log Message:user about to get to the staff controller; Generated by 
_______________________________________

Log Entry:
10/08/2018 20:59:56
Log in: https://localhost:44309/staff/createinvite. Log Message:check if user exist in the db---------FIDELITYBANK\P7578; Generated by 1returned
_______________________________________

Log Entry:
10/08/2018 21:02:22
Log in: https://localhost:44309/. Log Message:user about to get to the landing page; Generated by 
_______________________________________

Log Entry:
10/08/2018 21:02:27
Log in: https://localhost:44309/. Log Message:Got staff id; Generated by P7578
_______________________________________

Log Entry:
10/08/2018 21:02:28
Log in: https://localhost:44309/Receptionist. Log Message:user about to get to the receptionist controller; Generated by 
_______________________________________

Log Entry:
10/08/2018 21:02:41
Log in: https://localhost:44309/staff/dashboard. Log Message:user about to get to the staff controller; Generated by 
_______________________________________

Log Entry:
10/08/2018 21:02:41
Log in: https://localhost:44309/staff/dashboard. Log Message:check if user exist in the db---------FIDELITYBANK\P7578; Generated by 1returned
_______________________________________

Log Entry:
10/08/2018 21:02:45
Log in: https://localhost:44309/receptionist/dashboard. Log Message:user about to get to the receptionist controller; Generated by 
_______________________________________

Log Entry:
10/08/2018 21:02:55
Log in: https://localhost:44309/Staff. Log Message:user about to get to the staff controller; Generated by 
_______________________________________

Log Entry:
10/08/2018 21:02:55
Log in: https://localhost:44309/Staff. Log Message:check if user exist in the db---------FIDELITYBANK\P7578; Generated by 1returned
_______________________________________

Log Entry:
10/08/2018 21:02:55
Log in: https://localhost:44309/Staff/DashBoard. Log Message:user about to get to the staff controller; Generated by 
_______________________________________

Log Entry:
10/08/2018 21:02:56
Log in: https://localhost:44309/Staff/DashBoard. Log Message:check if user exist in the db---------FIDELITYBANK\P7578; Generated by 1returned
_______________________________________

Log Entry:
10/08/2018 21:02:59
Log in: https://localhost:44309/staff/GetDashboardPieChartItems. Log Message:user about to get to the staff controller; Generated by 
_______________________________________

Log Entry:
10/08/2018 21:02:59
Log in: https://localhost:44309/staff/GetDashboardPieChartItems. Log Message:check if user exist in the db---------FIDELITYBANK\P7578; Generated by 1returned
_______________________________________

Log Entry:
10/08/2018 21:03:00
Log in: https://localhost:44309/staff/GetDashboarBarChartItems. Log Message:user about to get to the staff controller; Generated by 
_______________________________________

Log Entry:
10/08/2018 21:03:01
Log in: https://localhost:44309/staff/GetDashboarBarChartItems. Log Message:check if user exist in the db---------FIDELITYBANK\P7578; Generated by 1returned
_______________________________________

Log Entry:
10/08/2018 21:03:07
Log in: https://localhost:44309/staff/createinvite. Log Message:user about to get to the staff controller; Generated by 
_______________________________________

Log Entry:
10/08/2018 21:03:08
Log in: https://localhost:44309/staff/createinvite. Log Message:check if user exist in the db---------FIDELITYBANK\P7578; Generated by 1returned
_______________________________________

Log Entry:
10/08/2018 21:07:47
Log in: https://localhost:44309/staff/createinvite. Log Message:user about to get to the staff controller; Generated by 
_______________________________________

Log Entry:
10/08/2018 21:07:47
Log in: https://localhost:44309/staff/createinvite. Log Message:check if user exist in the db---------FIDELITYBANK\P7578; Generated by 1returned
_______________________________________

Log Entry:
10/08/2018 21:08:12
Log in: https://localhost:44309/Staff/Appointments. Log Message:user about to get to the staff controller; Generated by 
_______________________________________

Log Entry:
10/08/2018 21:08:13
Log in: https://localhost:44309/Staff/Appointments. Log Message:check if user exist in the db---------FIDELITYBANK\P7578; Generated by 1returned
_______________________________________

Log Entry:
10/08/2018 21:08:31
Log in: https://localhost:44309/appointments/Detail/81. Log Message:/appointments/detail/81; Generated by fe80::5d7a:be3e:8f7:c02%10
_______________________________________

Log Entry:
10/08/2018 21:11:34
Log in: https://localhost:44309/Staff/Appointments. Log Message:user about to get to the staff controller; Generated by 
_______________________________________

Log Entry:
10/08/2018 21:11:34
Log in: https://localhost:44309/Staff/Appointments. Log Message:check if user exist in the db---------FIDELITYBANK\P7578; Generated by 1returned
_______________________________________

Log Entry:
10/08/2018 21:11:55
Log in: https://localhost:44309/appointments/Detail/72. Log Message:/appointments/detail/72; Generated by fe80::5d7a:be3e:8f7:c02%10
_______________________________________

Log Entry:
10/08/2018 21:12:30
Log in: https://localhost:44309/staff/dashboard. Log Message:user about to get to the staff controller; Generated by 
_______________________________________

Log Entry:
10/08/2018 21:12:31
Log in: https://localhost:44309/staff/dashboard. Log Message:check if user exist in the db---------FIDELITYBANK\P7578; Generated by 1returned
_______________________________________

Log Entry:
10/08/2018 21:12:35
Log in: https://localhost:44309/staff/GetDashboardPieChartItems. Log Message:user about to get to the staff controller; Generated by 
_______________________________________

Log Entry:
10/08/2018 21:12:36
Log in: https://localhost:44309/staff/GetDashboardPieChartItems. Log Message:check if user exist in the db---------FIDELITYBANK\P7578; Generated by 1returned
_______________________________________

Log Entry:
10/08/2018 21:12:37
Log in: https://localhost:44309/staff/GetDashboarBarChartItems. Log Message:user about to get to the staff controller; Generated by 
_______________________________________

Log Entry:
10/08/2018 21:12:37
Log in: https://localhost:44309/staff/GetDashboarBarChartItems. Log Message:check if user exist in the db---------FIDELITYBANK\P7578; Generated by 1returned
_______________________________________

Log Entry:
10/08/2018 21:12:39
Log in: https://localhost:44309/staff/appointments. Log Message:user about to get to the staff controller; Generated by 
_______________________________________

Log Entry:
10/08/2018 21:12:39
Log in: https://localhost:44309/staff/appointments. Log Message:check if user exist in the db---------FIDELITYBANK\P7578; Generated by 1returned
_______________________________________

Log Entry:
10/08/2018 21:15:50
Log in: https://localhost:44309/staff/appointments. Log Message:user about to get to the staff controller; Generated by 
_______________________________________

Log Entry:
10/08/2018 21:15:50
Log in: https://localhost:44309/staff/appointments. Log Message:check if user exist in the db---------FIDELITYBANK\P7578; Generated by 1returned
_______________________________________

Log Entry:
10/08/2018 21:18:19
Log in: https://localhost:44309/appointments/Detail/81. Log Message:/appointments/detail/81; Generated by fe80::5d7a:be3e:8f7:c02%10
_______________________________________

Log Entry:
10/08/2018 21:26:39
Log in: https://localhost:44309/. Log Message:user about to get to the landing page; Generated by 
_______________________________________

Log Entry:
10/08/2018 21:26:40
Log in: https://localhost:44309/. Log Message:Got staff id; Generated by P7578
_______________________________________

Log Entry:
10/08/2018 21:26:40
Log in: https://localhost:44309/Receptionist. Log Message:user about to get to the receptionist controller; Generated by 
_______________________________________

Log Entry:
10/08/2018 21:26:53
Log in: https://localhost:44309/staff/dashboard. Log Message:user about to get to the staff controller; Generated by 
_______________________________________

Log Entry:
10/08/2018 21:26:54
Log in: https://localhost:44309/staff/dashboard. Log Message:check if user exist in the db---------FIDELITYBANK\P7578; Generated by 1returned
_______________________________________

Log Entry:
10/08/2018 21:27:02
Log in: https://localhost:44309/staff/GetDashboardPieChartItems. Log Message:user about to get to the staff controller; Generated by 
_______________________________________

Log Entry:
10/08/2018 21:27:03
Log in: https://localhost:44309/staff/GetDashboardPieChartItems. Log Message:check if user exist in the db---------FIDELITYBANK\P7578; Generated by 1returned
_______________________________________

Log Entry:
10/08/2018 21:27:03
Log in: https://localhost:44309/staff/GetDashboarBarChartItems. Log Message:user about to get to the staff controller; Generated by 
_______________________________________

Log Entry:
10/08/2018 21:27:04
Log in: https://localhost:44309/staff/GetDashboarBarChartItems. Log Message:check if user exist in the db---------FIDELITYBANK\P7578; Generated by 1returned
_______________________________________

Log Entry:
10/08/2018 21:27:05
Log in: https://localhost:44309/staff/createinvite. Log Message:user about to get to the staff controller; Generated by 
_______________________________________

Log Entry:
10/08/2018 21:27:06
Log in: https://localhost:44309/staff/createinvite. Log Message:check if user exist in the db---------FIDELITYBANK\P7578; Generated by 1returned
_______________________________________

Log Entry:
10/08/2018 21:28:20
Log in: https://localhost:44309/staff/createinvite. Log Message:user about to get to the staff controller; Generated by 
_______________________________________

Log Entry:
10/08/2018 21:28:20
Log in: https://localhost:44309/staff/createinvite. Log Message:check if user exist in the db---------FIDELITYBANK\P7578; Generated by 1returned
_______________________________________

Log Entry:
10/08/2018 21:30:32
Log in: https://localhost:44309/Staff/Appointments. Log Message:user about to get to the staff controller; Generated by 
_______________________________________

Log Entry:
10/08/2018 21:30:33
Log in: https://localhost:44309/Staff/Appointments. Log Message:check if user exist in the db---------FIDELITYBANK\P7578; Generated by 1returned
_______________________________________

Log Entry:
10/08/2018 21:30:45
Log in: https://localhost:44309/appointments/Detail/82. Log Message:/appointments/detail/82; Generated by fe80::5d7a:be3e:8f7:c02%10
_______________________________________

Log Entry:
10/08/2018 21:31:08
Log in: https://localhost:44309/appointments/Detail/72. Log Message:/appointments/detail/72; Generated by fe80::5d7a:be3e:8f7:c02%10
_______________________________________

Log Entry:
10/08/2018 21:31:15
Log in: https://localhost:44309/Staff/Appointments. Log Message:user about to get to the staff controller; Generated by 
_______________________________________

Log Entry:
10/08/2018 21:31:15
Log in: https://localhost:44309/Staff/Appointments. Log Message:check if user exist in the db---------FIDELITYBANK\P7578; Generated by 1returned
_______________________________________

Log Entry:
10/08/2018 21:31:22
Log in: https://localhost:44309/staff/createinvite. Log Message:user about to get to the staff controller; Generated by 
_______________________________________

Log Entry:
10/08/2018 21:31:23
Log in: https://localhost:44309/staff/createinvite. Log Message:check if user exist in the db---------FIDELITYBANK\P7578; Generated by 1returned
_______________________________________

Log Entry:
10/08/2018 21:31:55
Log in: https://localhost:44309/staff/dashboard. Log Message:user about to get to the staff controller; Generated by 
_______________________________________

Log Entry:
10/08/2018 21:31:55
Log in: https://localhost:44309/staff/dashboard. Log Message:check if user exist in the db---------FIDELITYBANK\P7578; Generated by 1returned
_______________________________________

Log Entry:
10/08/2018 21:32:01
Log in: https://localhost:44309/staff/GetDashboardPieChartItems. Log Message:user about to get to the staff controller; Generated by 
_______________________________________

Log Entry:
10/08/2018 21:32:01
Log in: https://localhost:44309/staff/GetDashboardPieChartItems. Log Message:check if user exist in the db---------FIDELITYBANK\P7578; Generated by 1returned
_______________________________________

Log Entry:
10/08/2018 21:32:02
Log in: https://localhost:44309/staff/GetDashboarBarChartItems. Log Message:user about to get to the staff controller; Generated by 
_______________________________________

Log Entry:
10/08/2018 21:32:02
Log in: https://localhost:44309/staff/GetDashboarBarChartItems. Log Message:check if user exist in the db---------FIDELITYBANK\P7578; Generated by 1returned
_______________________________________

Log Entry:
10/08/2018 21:32:32
Log in: https://localhost:44309/staff/dashboard. Log Message:user about to get to the staff controller; Generated by 
_______________________________________

Log Entry:
10/08/2018 21:32:33
Log in: https://localhost:44309/staff/dashboard. Log Message:check if user exist in the db---------FIDELITYBANK\P7578; Generated by 1returned
_______________________________________

Log Entry:
10/08/2018 21:32:37
Log in: https://localhost:44309/staff/GetDashboardPieChartItems. Log Message:user about to get to the staff controller; Generated by 
_______________________________________

Log Entry:
10/08/2018 21:32:38
Log in: https://localhost:44309/staff/GetDashboardPieChartItems. Log Message:check if user exist in the db---------FIDELITYBANK\P7578; Generated by 1returned
_______________________________________

Log Entry:
10/08/2018 21:32:39
Log in: https://localhost:44309/staff/GetDashboarBarChartItems. Log Message:user about to get to the staff controller; Generated by 
_______________________________________

Log Entry:
10/08/2018 21:32:39
Log in: https://localhost:44309/staff/GetDashboarBarChartItems. Log Message:check if user exist in the db---------FIDELITYBANK\P7578; Generated by 1returned
_______________________________________

Log Entry:
10/08/2018 21:40:27
Log in: https://localhost:44309/. Log Message:user about to get to the landing page; Generated by 
_______________________________________

Log Entry:
10/08/2018 21:40:35
Log in: https://localhost:44309/. Log Message:Got staff id; Generated by P7578
_______________________________________

Log Entry:
10/08/2018 21:40:36
Log in: https://localhost:44309/Receptionist. Log Message:user about to get to the receptionist controller; Generated by 
_______________________________________

Log Entry:
10/08/2018 21:41:17
Log in: https://localhost:44309/receptionist/dashboard. Log Message:user about to get to the receptionist controller; Generated by 
_______________________________________

Log Entry:
10/08/2018 21:43:10
Log in: https://localhost:44309/admin/dashboard. Log Message:user about to get to the admin controller; Generated by 
_______________________________________

Log Entry:
10/08/2018 21:43:11
Log in: https://localhost:44309/admin/dashboard. Log Message:Got staff id; Generated by P7578
_______________________________________

Log Entry:
10/08/2018 22:18:37
Log in: https://localhost:44309/Receptionist/DashBoard. Log Message:user about to get to the receptionist controller; Generated by 
_______________________________________

Log Entry:
10/08/2018 23:31:33
Log in: https://localhost:44309/. Log Message:user about to get to the landing page; Generated by 
_______________________________________

Log Entry:
10/08/2018 23:31:36
Log in: https://localhost:44309/. Log Message:Got staff id; Generated by P7578
_______________________________________

Log Entry:
10/08/2018 23:31:36
Log in: https://localhost:44309/Receptionist. Log Message:user about to get to the receptionist controller; Generated by 
_______________________________________

Log Entry:
10/08/2018 23:31:51
Log in: https://localhost:44309/receptionist/dashboard. Log Message:user about to get to the receptionist controller; Generated by 
_______________________________________
