
Log Entry:
09/23/2018 12:45:29
Log in: https://localhost:44309/Staff/visitorLog. Log Message:User is about to view all his visitor records; Generated by 3fb52dd7-552a-4b47-80db-d31c5486dbf9
_______________________________________

Log Entry:
09/23/2018 12:45:44
Log in: https://localhost:44309/Staff/visitorLog. Log Message:User is about to view all his visitor records; Generated by 3fb52dd7-552a-4b47-80db-d31c5486dbf9
_______________________________________

Log Entry:
09/23/2018 12:46:09
Log in: https://localhost:44309/Staff/VisitorLog. Log Message:User is about to view all his visitor records; Generated by 3fb52dd7-552a-4b47-80db-d31c5486dbf9
_______________________________________
