
Log Entry:
09/25/2018 00:04:00
Log in: https://localhost:44309/Staff/VisitorLog. Log Message:User is about to view all his visitor records; Generated by 3fb52dd7-552a-4b47-80db-d31c5486dbf9
_______________________________________

Log Entry:
09/25/2018 00:09:30
Log in: https://localhost:44309/Staff/VisitorLog. Log Message:User is about to view all his visitor records; Generated by 3fb52dd7-552a-4b47-80db-d31c5486dbf9
_______________________________________

Log Entry:
09/25/2018 00:10:51
Log in: https://localhost:44309/Staff/VisitorLog. Log Message:User is about to view all his visitor records; Generated by 3fb52dd7-552a-4b47-80db-d31c5486dbf9
_______________________________________

Log Entry:
09/25/2018 00:15:33
Log in: https://localhost:44309/Staff/VisitorLog. Log Message:User is about to view all his visitor records; Generated by 3fb52dd7-552a-4b47-80db-d31c5486dbf9
_______________________________________

Log Entry:
09/25/2018 00:20:28
Log in: https://localhost:44309/Staff/VisitorLog. Log Message:User is about to view all his visitor records; Generated by 3fb52dd7-552a-4b47-80db-d31c5486dbf9
_______________________________________

Log Entry:
09/25/2018 00:33:08
Log in: https://localhost:44309/Staff/VisitorLog. Log Message:User is about to view all his visitor records; Generated by 3fb52dd7-552a-4b47-80db-d31c5486dbf9
_______________________________________

Log Entry:
09/25/2018 00:35:17
Log in: https://localhost:44309/Staff/VisitorLog. Log Message:User is about to view all his visitor records; Generated by 3fb52dd7-552a-4b47-80db-d31c5486dbf9
_______________________________________

Log Entry:
09/25/2018 00:38:41
Log in: https://localhost:44309/Staff/VisitorLog. Log Message:User is about to view all his visitor records; Generated by 3fb52dd7-552a-4b47-80db-d31c5486dbf9
_______________________________________

Log Entry:
09/25/2018 00:41:36
Log in: https://localhost:44309/Staff/VisitorLog. Log Message:User is about to view all his visitor records; Generated by 3fb52dd7-552a-4b47-80db-d31c5486dbf9
_______________________________________

Log Entry:
09/25/2018 00:48:48
Log in: https://localhost:44309/Staff/VisitorLog. Log Message:User is about to view all his visitor records; Generated by 3fb52dd7-552a-4b47-80db-d31c5486dbf9
_______________________________________

Log Entry:
09/25/2018 06:38:48
Log in: https://localhost:44309/Staff/VisitorLog. Log Message:User is about to view all his visitor records; Generated by 3fb52dd7-552a-4b47-80db-d31c5486dbf9
_______________________________________

Log Entry:
09/25/2018 07:17:51
Log in: https://localhost:44309/Staff/VisitorLog. Log Message:User is about to view all his visitor records; Generated by 3fb52dd7-552a-4b47-80db-d31c5486dbf9
_______________________________________

Log Entry:
09/25/2018 08:50:48
Log in: https://localhost:44309/Staff/VisitorLog. Log Message:User is about to view all his visitor records; Generated by 3fb52dd7-552a-4b47-80db-d31c5486dbf9
_______________________________________

Log Entry:
09/25/2018 09:27:54
Log in: https://localhost:44309/Staff/VisitorLog. Log Message:User is about to view all his visitor records; Generated by 3fb52dd7-552a-4b47-80db-d31c5486dbf9
_______________________________________

Log Entry:
09/25/2018 09:28:35
Log in: https://localhost:44309/Staff/VisitorLog. Log Message:User is about to view all his visitor records; Generated by 3fb52dd7-552a-4b47-80db-d31c5486dbf9
_______________________________________

Log Entry:
09/25/2018 09:36:03
Log in: https://localhost:44309/appointments/Detail/12. Log Message:appointments/detail/12; Generated by fe80::5d7a:be3e:8f7:c02%10
_______________________________________

Log Entry:
09/25/2018 09:36:26
Log in: https://localhost:44309/appointments/Detail/12. Log Message:appointments/detail/12; Generated by fe80::5d7a:be3e:8f7:c02%10
_______________________________________

Log Entry:
09/25/2018 09:39:01
Log in: https://localhost:44309/appointments/modify/12. Log Message:appointments/detail/12; Generated by fe80::5d7a:be3e:8f7:c02%10
_______________________________________

Log Entry:
09/25/2018 09:54:09
Log in: https://localhost:44309/appointments/modify/12. Log Message:appointments/detail/12; Generated by fe80::5d7a:be3e:8f7:c02%10
_______________________________________

Log Entry:
09/25/2018 10:04:53
Log in: https://localhost:44309/appointments/modify/57. Log Message:appointments/detail/57; Generated by fe80::5d7a:be3e:8f7:c02%10
_______________________________________

Log Entry:
09/25/2018 10:23:57
Log in: https://localhost:44309/Staff/VisitorLog. Log Message:User is about to view all his visitor records; Generated by 3fb52dd7-552a-4b47-80db-d31c5486dbf9
_______________________________________

Log Entry:
09/25/2018 10:26:33
Log in: https://localhost:44309/appointments/modify/52. Log Message:appointments/detail/52; Generated by fe80::5d7a:be3e:8f7:c02%10
_______________________________________

Log Entry:
09/25/2018 10:27:45
Log in: https://localhost:44309/appointments/modify/51. Log Message:appointments/detail/51; Generated by fe80::5d7a:be3e:8f7:c02%10
_______________________________________

Log Entry:
09/25/2018 10:27:53
Log in: https://localhost:44309/appointments/modify/50. Log Message:appointments/detail/50; Generated by fe80::5d7a:be3e:8f7:c02%10
_______________________________________

Log Entry:
09/25/2018 10:28:41
Log in: https://localhost:44309/appointments/modify/5. Log Message:appointments/detail/5; Generated by fe80::5d7a:be3e:8f7:c02%10
_______________________________________

Log Entry:
09/25/2018 10:30:05
Log in: https://localhost:44309/appointments/modify/35. Log Message:appointments/detail/35; Generated by fe80::5d7a:be3e:8f7:c02%10
_______________________________________

Log Entry:
09/25/2018 10:30:29
Log in: https://localhost:44309/appointments/modify/57. Log Message:appointments/detail/57; Generated by fe80::5d7a:be3e:8f7:c02%10
_______________________________________

Log Entry:
09/25/2018 10:31:30
Log in: https://localhost:44309/appointments/modify/53. Log Message:appointments/detail/53; Generated by fe80::5d7a:be3e:8f7:c02%10
_______________________________________

Log Entry:
09/25/2018 10:31:58
Log in: https://localhost:44309/Staff/VisitorLog. Log Message:User is about to view all his visitor records; Generated by 3fb52dd7-552a-4b47-80db-d31c5486dbf9
_______________________________________

Log Entry:
09/25/2018 10:46:54
Log in: https://localhost:44309/appointments/modify/1. Log Message:appointments/detail/1; Generated by fe80::5d7a:be3e:8f7:c02%10
_______________________________________

Log Entry:
09/25/2018 10:48:41
Log in: https://localhost:44309/appointments/modify/1. Log Message:appointments/detail/1; Generated by fe80::5d7a:be3e:8f7:c02%10
_______________________________________

Log Entry:
09/25/2018 10:48:51
Log in: https://localhost:44309/appointments/modify/1. Log Message:appointments/detail/1; Generated by fe80::5d7a:be3e:8f7:c02%10
_______________________________________

Log Entry:
09/25/2018 10:49:34
Log in: https://localhost:44309/appointments/modify/1. Log Message:appointments/detail/1; Generated by fe80::5d7a:be3e:8f7:c02%10
_______________________________________

Log Entry:
09/25/2018 10:54:44
Log in: https://localhost:44309/appointments/modify/1. Log Message:appointments/detail/1; Generated by fe80::5d7a:be3e:8f7:c02%10
_______________________________________

Log Entry:
09/25/2018 10:57:39
Log in: https://localhost:44309/appointments/modify/51. Log Message:appointments/detail/51; Generated by fe80::5d7a:be3e:8f7:c02%10
_______________________________________

Log Entry:
09/25/2018 10:57:49
Log in: https://localhost:44309/appointments/modify/31. Log Message:appointments/detail/31; Generated by fe80::5d7a:be3e:8f7:c02%10
_______________________________________

Log Entry:
09/25/2018 10:58:00
Log in: https://localhost:44309/appointments/modify/25. Log Message:appointments/detail/25; Generated by fe80::5d7a:be3e:8f7:c02%10
_______________________________________

Log Entry:
09/25/2018 10:58:10
Log in: https://localhost:44309/appointments/modify/20. Log Message:appointments/detail/20; Generated by fe80::5d7a:be3e:8f7:c02%10
_______________________________________

Log Entry:
09/25/2018 10:58:19
Log in: https://localhost:44309/appointments/modify/22. Log Message:appointments/detail/22; Generated by fe80::5d7a:be3e:8f7:c02%10
_______________________________________

Log Entry:
09/25/2018 10:58:28
Log in: https://localhost:44309/appointments/modify/20. Log Message:appointments/detail/20; Generated by fe80::5d7a:be3e:8f7:c02%10
_______________________________________

Log Entry:
09/25/2018 10:58:36
Log in: https://localhost:44309/appointments/modify/21. Log Message:appointments/detail/21; Generated by fe80::5d7a:be3e:8f7:c02%10
_______________________________________

Log Entry:
09/25/2018 11:02:48
Log in: https://localhost:44309/appointments/modify/1. Log Message:appointments/detail/1; Generated by fe80::5d7a:be3e:8f7:c02%10
_______________________________________

Log Entry:
09/25/2018 11:04:08
Log in: https://localhost:44309/appointments/modify/1. Log Message:appointments/detail/1; Generated by fe80::5d7a:be3e:8f7:c02%10
_______________________________________

Log Entry:
09/25/2018 11:17:54
Log in: https://localhost:44309/appointments/modify/1. Log Message:appointments/detail/1; Generated by fe80::5d7a:be3e:8f7:c02%10
_______________________________________

Log Entry:
09/25/2018 11:18:26
Log in: https://localhost:44309/appointments/modify/1. Log Message:appointments/detail/1; Generated by fe80::5d7a:be3e:8f7:c02%10
_______________________________________

Log Entry:
09/25/2018 11:44:26
Log in: https://localhost:44309/staff/visitorlog. Log Message:User is about to view all his visitor records; Generated by 3fb52dd7-552a-4b47-80db-d31c5486dbf9
_______________________________________

Log Entry:
09/25/2018 11:45:00
Log in: https://localhost:44309/appointments/modify/1. Log Message:appointments/detail/1; Generated by fe80::5d7a:be3e:8f7:c02%10
_______________________________________

Log Entry:
09/25/2018 11:45:22
Log in: https://localhost:44309/appointments/modify/1. Log Message:appointments/detail/1; Generated by fe80::5d7a:be3e:8f7:c02%10
_______________________________________

Log Entry:
09/25/2018 11:51:26
Log in: https://localhost:44309/appointments/Detail/1. Log Message:appointments/detail/1; Generated by fe80::5d7a:be3e:8f7:c02%10
_______________________________________

Log Entry:
09/25/2018 11:54:15
Log in: https://localhost:44309/appointments/Detail/1. Log Message:appointments/detail/1; Generated by fe80::5d7a:be3e:8f7:c02%10
_______________________________________

Log Entry:
09/25/2018 11:57:06
Log in: https://localhost:44309/appointments/Detail/1. Log Message:appointments/detail/1; Generated by fe80::5d7a:be3e:8f7:c02%10
_______________________________________

Log Entry:
09/25/2018 11:57:23
Log in: https://localhost:44309/appointments/Detail/1. Log Message:appointments/detail/1; Generated by fe80::5d7a:be3e:8f7:c02%10
_______________________________________

Log Entry:
09/25/2018 11:58:16
Log in: https://localhost:44309/Staff/VisitorLog. Log Message:User is about to view all his visitor records; Generated by 3fb52dd7-552a-4b47-80db-d31c5486dbf9
_______________________________________

Log Entry:
09/25/2018 11:58:33
Log in: https://localhost:44309/appointments/Detail/1. Log Message:appointments/detail/1; Generated by fe80::5d7a:be3e:8f7:c02%10
_______________________________________

Log Entry:
09/25/2018 12:00:05
Log in: https://localhost:44309/appointments/Detail/1. Log Message:appointments/detail/1; Generated by fe80::5d7a:be3e:8f7:c02%10
_______________________________________

Log Entry:
09/25/2018 12:48:49
Log in: https://localhost:44309/appointments/Detail/1. Log Message:appointments/detail/1; Generated by fe80::5d7a:be3e:8f7:c02%10
_______________________________________

Log Entry:
09/25/2018 12:50:09
Log in: https://localhost:44309/appointments/Detail/28. Log Message:appointments/detail/28; Generated by fe80::5d7a:be3e:8f7:c02%10
_______________________________________

Log Entry:
09/25/2018 12:54:21
Log in: https://localhost:44309/appointments/Detail/26. Log Message:appointments/detail/26; Generated by fe80::5d7a:be3e:8f7:c02%10
_______________________________________

Log Entry:
09/25/2018 13:18:53
Log in: https://localhost:44309/appointments/Detail/1. Log Message:appointments/detail/1; Generated by fe80::5d7a:be3e:8f7:c02%10
_______________________________________

Log Entry:
09/25/2018 13:21:56
Log in: https://localhost:44309/appointments/Detail/1. Log Message:appointments/detail/1; Generated by fe80::5d7a:be3e:8f7:c02%10
_______________________________________

Log Entry:
09/25/2018 13:28:31
Log in: https://localhost:44309/appointments/Detail/1. Log Message:appointments/detail/1; Generated by fe80::5d7a:be3e:8f7:c02%10
_______________________________________

Log Entry:
09/25/2018 13:32:42
Log in: https://localhost:44309/appointments/Detail/1. Log Message:appointments/detail/1; Generated by fe80::5d7a:be3e:8f7:c02%10
_______________________________________

Log Entry:
09/25/2018 13:33:40
Log in: https://localhost:44309/appointments/Detail/1. Log Message:appointments/detail/1; Generated by fe80::5d7a:be3e:8f7:c02%10
_______________________________________

Log Entry:
09/25/2018 13:36:17
Log in: https://localhost:44309/appointments/Detail/1. Log Message:/appointments/detail/1; Generated by fe80::5d7a:be3e:8f7:c02%10
_______________________________________

Log Entry:
09/25/2018 13:38:03
Log in: https://localhost:44309/appointments/Detail/1. Log Message:/appointments/detail/1; Generated by fe80::5d7a:be3e:8f7:c02%10
_______________________________________

Log Entry:
09/25/2018 14:33:43
Log in: https://localhost:44309/Staff/VisitorLog. Log Message:User is about to view all his visitor records; Generated by 3fb52dd7-552a-4b47-80db-d31c5486dbf9
_______________________________________

Log Entry:
09/25/2018 14:34:10
Log in: https://localhost:44309/appointments/Detail/1. Log Message:/appointments/detail/1; Generated by fe80::5d7a:be3e:8f7:c02%10
_______________________________________

Log Entry:
09/25/2018 15:03:51
Log in: https://localhost:44309/appointments/Detail/1. Log Message:/appointments/detail/1; Generated by fe80::5d7a:be3e:8f7:c02%10
_______________________________________

Log Entry:
09/25/2018 15:05:19
Log in: https://localhost:44309/appointments/Detail/1. Log Message:/appointments/detail/1; Generated by fe80::5d7a:be3e:8f7:c02%10
_______________________________________

Log Entry:
09/25/2018 15:11:44
Log in: https://localhost:44309/appointments/Detail/1. Log Message:/appointments/detail/1; Generated by fe80::5d7a:be3e:8f7:c02%10
_______________________________________

Log Entry:
09/25/2018 15:13:54
Log in: https://localhost:44309/appointments/Detail/1. Log Message:/appointments/detail/1; Generated by fe80::5d7a:be3e:8f7:c02%10
_______________________________________

Log Entry:
09/25/2018 15:14:43
Log in: https://localhost:44309/appointments/Detail/1. Log Message:/appointments/detail/1; Generated by fe80::5d7a:be3e:8f7:c02%10
_______________________________________

Log Entry:
09/25/2018 15:17:31
Log in: https://localhost:44309/appointments/Detail/1. Log Message:/appointments/detail/1; Generated by fe80::5d7a:be3e:8f7:c02%10
_______________________________________

Log Entry:
09/25/2018 17:27:23
Log in: https://localhost:44309/appointments/Detail/57. Log Message:/appointments/detail/57; Generated by fe80::5d7a:be3e:8f7:c02%10
_______________________________________

Log Entry:
09/25/2018 17:31:58
Log in: https://localhost:44309/appointments/Detail/1. Log Message:/appointments/detail/1; Generated by fe80::5d7a:be3e:8f7:c02%10
_______________________________________

Log Entry:
09/25/2018 18:40:09
Log in: https://localhost:44309/appointments/Detail/1. Log Message:/appointments/detail/1; Generated by fe80::5d7a:be3e:8f7:c02%10
_______________________________________

Log Entry:
09/25/2018 18:40:12
Log in: https://localhost:44309/appointments/Detail/1. Log Message:/appointments/detail/1; Generated by fe80::5d7a:be3e:8f7:c02%10
_______________________________________

Log Entry:
09/25/2018 18:40:25
Log in: https://localhost:44309/appointments/Detail/1. Log Message:/appointments/detail/1; Generated by fe80::5d7a:be3e:8f7:c02%10
_______________________________________

Log Entry:
09/25/2018 18:41:08
Log in: https://localhost:44309/appointments/Detail/1. Log Message:/appointments/detail/1; Generated by fe80::5d7a:be3e:8f7:c02%10
_______________________________________

Log Entry:
09/25/2018 18:41:13
Log in: https://localhost:44309/appointments/Detail/1. Log Message:/appointments/detail/1; Generated by fe80::5d7a:be3e:8f7:c02%10
_______________________________________

Log Entry:
09/25/2018 18:41:30
Log in: https://localhost:44309/appointments/Detail/1. Log Message:/appointments/detail/1; Generated by fe80::5d7a:be3e:8f7:c02%10
_______________________________________

Log Entry:
09/25/2018 18:41:34
Log in: https://localhost:44309/appointments/Detail/1. Log Message:/appointments/detail/1; Generated by fe80::5d7a:be3e:8f7:c02%10
_______________________________________

Log Entry:
09/25/2018 18:41:38
Log in: https://localhost:44309/appointments/Detail/1. Log Message:/appointments/detail/1; Generated by fe80::5d7a:be3e:8f7:c02%10
_______________________________________

Log Entry:
09/25/2018 18:41:48
Log in: https://localhost:44309/appointments/Detail/1. Log Message:/appointments/detail/1; Generated by fe80::5d7a:be3e:8f7:c02%10
_______________________________________

Log Entry:
09/25/2018 18:42:03
Log in: https://localhost:44309/appointments/Detail/1. Log Message:/appointments/detail/1; Generated by fe80::5d7a:be3e:8f7:c02%10
_______________________________________

Log Entry:
09/25/2018 18:42:19
Log in: https://localhost:44309/appointments/Detail/1. Log Message:/appointments/detail/1; Generated by fe80::5d7a:be3e:8f7:c02%10
_______________________________________

Log Entry:
09/25/2018 18:43:51
Log in: https://localhost:44309/appointments/Detail/1. Log Message:/appointments/detail/1; Generated by fe80::5d7a:be3e:8f7:c02%10
_______________________________________

Log Entry:
09/25/2018 18:45:01
Log in: https://localhost:44309/appointments/Detail/1. Log Message:/appointments/detail/1; Generated by fe80::5d7a:be3e:8f7:c02%10
_______________________________________

Log Entry:
09/25/2018 18:45:13
Log in: https://localhost:44309/appointments/Detail/1. Log Message:/appointments/detail/1; Generated by fe80::5d7a:be3e:8f7:c02%10
_______________________________________

Log Entry:
09/25/2018 18:45:57
Log in: https://localhost:44309/appointments/Detail/1. Log Message:/appointments/detail/1; Generated by fe80::5d7a:be3e:8f7:c02%10
_______________________________________

Log Entry:
09/25/2018 18:46:01
Log in: https://localhost:44309/appointments/Detail/1. Log Message:/appointments/detail/1; Generated by fe80::5d7a:be3e:8f7:c02%10
_______________________________________

Log Entry:
09/25/2018 18:46:04
Log in: https://localhost:44309/appointments/Detail/1. Log Message:/appointments/detail/1; Generated by fe80::5d7a:be3e:8f7:c02%10
_______________________________________

Log Entry:
09/25/2018 18:46:53
Log in: https://localhost:44309/appointments/Detail/1. Log Message:/appointments/detail/1; Generated by fe80::5d7a:be3e:8f7:c02%10
_______________________________________

Log Entry:
09/25/2018 18:50:19
Log in: https://localhost:44309/appointments/Detail/5. Log Message:/appointments/detail/5; Generated by fe80::5d7a:be3e:8f7:c02%10
_______________________________________

Log Entry:
09/25/2018 18:51:27
Log in: https://localhost:44309/appointments/Detail/1. Log Message:/appointments/detail/1; Generated by fe80::5d7a:be3e:8f7:c02%10
_______________________________________

Log Entry:
09/25/2018 18:54:49
Log in: https://localhost:44309/appointments/Detail/1. Log Message:/appointments/detail/1; Generated by fe80::5d7a:be3e:8f7:c02%10
_______________________________________

Log Entry:
09/25/2018 18:58:01
Log in: https://localhost:44309/appointments/Detail/3. Log Message:/appointments/detail/3; Generated by fe80::5d7a:be3e:8f7:c02%10
_______________________________________

Log Entry:
09/25/2018 18:59:27
Log in: https://localhost:44309/appointments/Detail/1. Log Message:/appointments/detail/1; Generated by fe80::5d7a:be3e:8f7:c02%10
_______________________________________

Log Entry:
09/25/2018 19:00:38
Log in: https://localhost:44309/appointments/Detail/1. Log Message:/appointments/detail/1; Generated by fe80::5d7a:be3e:8f7:c02%10
_______________________________________

Log Entry:
09/25/2018 19:02:52
Log in: https://localhost:44309/appointments/Detail/1. Log Message:/appointments/detail/1; Generated by fe80::5d7a:be3e:8f7:c02%10
_______________________________________

Log Entry:
09/25/2018 19:03:46
Log in: https://localhost:44309/staff/visitorlog. Log Message:User is about to view all his visitor records; Generated by 3fb52dd7-552a-4b47-80db-d31c5486dbf9
_______________________________________

Log Entry:
09/25/2018 19:04:11
Log in: https://localhost:44309/appointments/Detail/6. Log Message:/appointments/detail/6; Generated by fe80::5d7a:be3e:8f7:c02%10
_______________________________________
