
Log Entry:
10/12/2018 23:54:14
Error in: https://localhost:44309/. Error Message:Error getting ADALTokenCacheThe underlying provider failed on Open.
_______________________________________

Log Entry:
10/12/2018 23:57:35
Error in: https://localhost:44309/. Error Message:Error getting ADALTokenCacheThe underlying provider failed on Open.
_______________________________________
