
Log Entry:
09/23/2018 12:45:29
Error in: https://localhost:44309/Staff/visitorLog. Error Message:EnCapriDisco_Select unable to connect to DB. Could not find stored procedure 'GetStaffVisitors'.
_______________________________________

Log Entry:
09/23/2018 12:45:44
Error in: https://localhost:44309/Staff/visitorLog. Error Message:EnCapriDisco_Select unable to connect to DB. Could not find stored procedure 'GetStaffVisitors'.
_______________________________________

Log Entry:
09/23/2018 12:45:55
Error in: https://localhost:44309/Staff/Appointments. Error Message:Appointments unable to connect to DB. Could not find stored procedure 'GetStaffAppointments'.
_______________________________________

Log Entry:
09/23/2018 12:46:03
Error in: https://localhost:44309/Staff/Appointments. Error Message:Appointments unable to connect to DB. Could not find stored procedure 'GetStaffAppointments'.
_______________________________________

Log Entry:
09/23/2018 12:46:09
Error in: https://localhost:44309/Staff/VisitorLog. Error Message:EnCapriDisco_Select unable to connect to DB. Could not find stored procedure 'GetStaffVisitors'.
_______________________________________
